<svg xmlns="http://www.w3.org/2000/svg" width="17.351" height="16.577" viewBox="0 0 17.351 16.577">
  <g id="Icon_feather-edit-3" data-name="Icon feather-edit-3" transform="translate(-3.75 -3.568)">
    <path id="Path_158" data-name="Path 158" d="M18,30h7.925" transform="translate(-5.575 -10.605)" fill="none" stroke="#7bb0b1" stroke-linecap="round" stroke-linejoin="round" stroke-width="1.5"/>
    <path id="Path_159" data-name="Path 159" d="M16.388,4.865A1.868,1.868,0,0,1,19.03,7.507L8.022,18.515,4.5,19.4l.881-3.522Z" transform="translate(0 0)" fill="none" stroke="#7bb0b1" stroke-linecap="round" stroke-linejoin="round" stroke-width="1.5"/>
  </g>
</svg>
