<svg xmlns="http://www.w3.org/2000/svg" width="20.344" height="16.918" viewBox="0 0 20.344 16.918">
  <g id="Icon_feather-camera" data-name="Icon feather-camera" transform="translate(-0.75 -3.75)">
    <path id="Path_105" data-name="Path 105" d="M20.344,18.2a1.713,1.713,0,0,1-1.713,1.713H3.213A1.713,1.713,0,0,1,1.5,18.2V8.783A1.713,1.713,0,0,1,3.213,7.07H6.639L8.352,4.5h5.139L15.2,7.07h3.426a1.713,1.713,0,0,1,1.713,1.713Z" fill="none" stroke="#7bb0b1" stroke-linecap="round" stroke-linejoin="round" stroke-width="1.5"/>
    <path id="Path_106" data-name="Path 106" d="M18.852,16.926A3.426,3.426,0,1,1,15.426,13.5a3.426,3.426,0,0,1,3.426,3.426Z" transform="translate(-4.504 -3.861)" fill="none" stroke="#7bb0b1" stroke-linecap="round" stroke-linejoin="round" stroke-width="1.5"/>
  </g>
</svg>
