<svg xmlns="http://www.w3.org/2000/svg" width="30" height="30" viewBox="0 0 30 30">
  <path id="Icon_material-info-outline" data-name="Icon material-info-outline" d="M16.5,25.5h3v-9h-3ZM18,3A15,15,0,1,0,33,18,15.005,15.005,0,0,0,18,3Zm0,28C11.385,31,5,24.615,5,18S11.385,5,18,5s13,6.385,13,13S24.615,31,18,31ZM16.5,13.5h3v-3h-3Z" transform="translate(-3 -3)" fill="#c6b8a0"/>
</svg>
