<svg xmlns="http://www.w3.org/2000/svg" width="118" height="107" viewBox="0 0 118 107">
  <g id="Group_100" data-name="Group 100" transform="translate(-24 -417)">
    <rect id="Rectangle_74" data-name="Rectangle 74" width="118" height="107" transform="translate(24 417)" fill="#f5f5f5"/>
    <g id="pdf" transform="translate(38.231 438.918)">
      <g id="Group_112" data-name="Group 112" transform="translate(14.769)">
        <g id="Group_111" data-name="Group 111">
          <path id="Path_180" data-name="Path 180" d="M74.886,17.364,58.539.378A1.235,1.235,0,0,0,57.65,0H33.287a4.95,4.95,0,0,0-4.945,4.943V22.211H18.469a3.7,3.7,0,0,0-3.7,3.7V44.424a3.7,3.7,0,0,0,3.7,3.7h9.874V59.229a4.945,4.945,0,0,0,4.945,4.934h37a4.944,4.944,0,0,0,4.945-4.931V18.22A1.234,1.234,0,0,0,74.886,17.364ZM57.956,3.331,71.375,17.275H57.956ZM18.469,45.655a1.232,1.232,0,0,1-1.232-1.231V25.909a1.233,1.233,0,0,1,1.232-1.231h33.32a1.233,1.233,0,0,1,1.232,1.231V44.424a1.233,1.233,0,0,1-1.232,1.231ZM72.763,59.232A2.473,2.473,0,0,1,70.286,61.7h-37A2.474,2.474,0,0,1,30.81,59.23V48.123H51.789a3.7,3.7,0,0,0,3.7-3.7V25.909a3.7,3.7,0,0,0-3.7-3.7H30.81V4.943a2.479,2.479,0,0,1,2.477-2.475h22.2V18.509a1.234,1.234,0,0,0,1.234,1.234H72.763Z" transform="translate(-14.769)" fill="#003031"/>
        </g>
      </g>
      <g id="Group_114" data-name="Group 114" transform="translate(22.016 30.12)">
        <g id="Group_113" data-name="Group 113">
          <path id="Path_181" data-name="Path 181" d="M80.1,241.543a2.779,2.779,0,0,0-1.526-1.038,12.456,12.456,0,0,0-2.545-.159H72.6v10.6h2.14v-4h1.4a12.212,12.212,0,0,0,2.22-.152,3.1,3.1,0,0,0,1.11-.5,2.906,2.906,0,0,0,.9-1.045,3.457,3.457,0,0,0,.354-1.641A3.291,3.291,0,0,0,80.1,241.543Zm-1.833,2.917a1.4,1.4,0,0,1-.669.521,5.533,5.533,0,0,1-1.692.166H74.736v-3.008H75.77a10.278,10.278,0,0,1,1.54.072,1.48,1.48,0,0,1,.86.47,1.369,1.369,0,0,1,.34.954A1.424,1.424,0,0,1,78.268,244.46Z" transform="translate(-72.596 -240.346)" fill="#003031"/>
        </g>
      </g>
      <g id="Group_116" data-name="Group 116" transform="translate(31.885 30.12)">
        <g id="Group_115" data-name="Group 115">
          <path id="Path_182" data-name="Path 182" d="M159.885,243.242a4.631,4.631,0,0,0-1.012-1.717,3.545,3.545,0,0,0-1.6-.976,7.637,7.637,0,0,0-2.017-.2h-3.911v10.6h4.027a6.471,6.471,0,0,0,1.894-.224,3.76,3.76,0,0,0,1.5-.846A4.674,4.674,0,0,0,159.906,248a6.966,6.966,0,0,0,.325-2.256A7.823,7.823,0,0,0,159.885,243.242Zm-2.082,4.352a2.243,2.243,0,0,1-.56,1.023,1.975,1.975,0,0,1-.864.441,5.826,5.826,0,0,1-1.294.1h-1.6v-7.02h.962a9.7,9.7,0,0,1,1.757.1,2.036,2.036,0,0,1,.991.5,2.426,2.426,0,0,1,.607,1.027,6.332,6.332,0,0,1,.217,1.887A6.914,6.914,0,0,1,157.8,247.594Z" transform="translate(-151.346 -240.346)" fill="#003031"/>
        </g>
      </g>
      <g id="Group_118" data-name="Group 118" transform="translate(42.6 30.12)">
        <g id="Group_117" data-name="Group 117">
          <path id="Path_183" data-name="Path 183" d="M244.112,242.139v-1.793h-7.266v10.6h2.14v-4.5h4.425v-1.793h-4.425v-2.509Z" transform="translate(-236.846 -240.346)" fill="#003031"/>
        </g>
      </g>
    </g>
  </g>
</svg>
