<svg xmlns="http://www.w3.org/2000/svg" width="18.411" height="14" viewBox="0 0 18.411 14">
  <path id="Icon_ionic-md-checkmark" data-name="Icon ionic-md-checkmark" d="M10.364,18.757,6.034,14.421,4.5,15.884l5.864,5.851L22.911,9.2,21.377,7.734Z" transform="translate(-4.5 -7.734)" fill="#d1c5b0"/>
</svg>
