<svg xmlns="http://www.w3.org/2000/svg" width="38.002" height="11.46" viewBox="0 0 38.002 11.46">
  <g id="Group_22" data-name="Group 22" transform="translate(0 11.46) rotate(-90)">
    <path id="Path_1" data-name="Path 1" d="M379,28.677c.008-2.591,2.132-3.7,5.578-3.677,1.885.01,5.513,0,5.757,2.945.191,3.953.091,31.294,0,33.323-.025.558-.04,1.642-.816,1.654s-.888-1.08-.9-1.624c-.074-4.227-.009-26.548,0-32.5,0-1.448-1.45-2.316-3.91-2.317-2.66,0-4.043.579-4.044,2.268-.009,10.158.007,22.273-.039,32.431,0,.608.11,1.809-.725,1.823-.881.016-.865-1.261-.874-1.894C378.961,56,378.984,33.731,379,28.677Z" transform="translate(-378.983 -25)" fill="#d9d9d9"/>
    <path id="Path_2" data-name="Path 2" d="M388.559,36.394c.078-.5.385-.978.859-.972.43.006.609.567.747.9.131.319.062,20.485.01,29.216,0,.659.064,1.884-.739,1.884-.973,0-.881-1.229-.887-1.968C388.512,61.064,388.517,36.67,388.559,36.394Z" transform="translate(-385.411 -32.022)" fill="#d9d9d9"/>
    <path id="Path_3" data-name="Path 3" d="M398.763,36.928c0-.819.212-1.455.784-1.453.536,0,.672.806.694,1.222.1,1.934,0,29.543-.053,30.252-.023.31-.454.525-.705.531a.742.742,0,0,1-.645-.565C398.748,66.58,398.763,41.473,398.763,36.928Z" transform="translate(-392.309 -32.058)" fill="#d9d9d9"/>
  </g>
</svg>
