<svg xmlns="http://www.w3.org/2000/svg" width="15" height="12.455" viewBox="0 0 15 12.455">
  <g id="Icon_feather-camera" data-name="Icon feather-camera" transform="translate(-1 -4)">
    <path id="Path_105" data-name="Path 105" d="M15.5,14.682a1.273,1.273,0,0,1-1.273,1.273H2.773A1.273,1.273,0,0,1,1.5,14.682v-7A1.273,1.273,0,0,1,2.773,6.409H5.318L6.591,4.5h3.818l1.273,1.909h2.545A1.273,1.273,0,0,1,15.5,7.682Z" fill="none" stroke="#7bb0b1" stroke-linecap="round" stroke-linejoin="round" stroke-width="1"/>
    <path id="Path_106" data-name="Path 106" d="M18.852,16.926A3.426,3.426,0,1,1,15.426,13.5a3.426,3.426,0,0,1,3.426,3.426Z" transform="translate(-6.926 -6.239)" fill="none" stroke="#7bb0b1" stroke-linecap="round" stroke-linejoin="round" stroke-width="1"/>
  </g>
</svg>
