<svg xmlns="http://www.w3.org/2000/svg" width="49" height="49" viewBox="0 0 49 49">
  <g id="Group_87" data-name="Group 87" transform="translate(-77 -44)">
    <path id="Path_92" data-name="Path 92" d="M24.5,0A24.5,24.5,0,1,1,0,24.5,24.5,24.5,0,0,1,24.5,0Z" transform="translate(77 44)" fill="#fff"/>
    <g id="Group_60" data-name="Group 60" transform="translate(-3227.022 -454.239)">
      <g id="Bastei_Lübbe_Verlag_logo" transform="translate(3313 511)">
        <path id="path3175" d="M11.812,5.25H6.562V0h5.25Zm6.562,0h-5.25V0h5.25Zm6.561,0h-5.25V0h5.25Zm6.562,0h-5.25V0H31.5ZM5.25,5.25H0V0H5.25Z" fill="#00498a"/>
        <path id="path3221" d="M8.719,18.969H7.538V17.832H8.719Zm0,1.976H7.538V19.807H8.719Zm-3.41,2.241V17.774H6.8v5.389c0,1.107.394,1.5,1.332,1.5s1.32-.411,1.32-1.507V17.774h1.493V23.14c0,2.055-1.258,2.683-2.826,2.683s-2.812-.605-2.812-2.638m21.552-5.412h4.448v1.171H28.348v2.014H30.72v1.148H28.348V24.46h3.146v1.183H26.862v-7.87Zm-4.4,6.732c.946,0,1.314-.364,1.314-1.194,0-.785-.307-1.183-1.29-1.183H21.29v2.377h1.167Zm-.012-3.491c.823,0,1.045-.352,1.045-1.057s-.271-1.047-1.094-1.047H21.29v2.1h1.155Zm-2.617-3.241h2.85c1.573,0,2.335.739,2.335,2.058a1.465,1.465,0,0,1-1.069,1.626,1.775,1.775,0,0,1,1.413,1.922c0,1.592-.971,2.262-2.666,2.262H19.828V17.774Zm-4.491,6.732c.945,0,1.314-.364,1.314-1.194,0-.785-.307-1.183-1.289-1.183H14.17v2.377h1.167Zm-.012-3.491c.823,0,1.044-.352,1.044-1.057s-.271-1.047-1.093-1.047H14.169v2.1h1.155Zm-2.617-3.241h2.85c1.572,0,2.334.739,2.334,2.058a1.465,1.465,0,0,1-1.069,1.626,1.775,1.775,0,0,1,1.413,1.922c0,1.592-.971,2.262-2.665,2.262H12.708V17.774ZM0,17.779H1.475v6.687h2.74v1.182H0v-7.87ZM30.043,8.592h1.442v7.875H30.043Zm-5.784,0h4.278V9.764H25.689v2.014H27.97v1.149H25.689v2.355h3.025v1.183H24.26V8.592ZM19.868,9.775H18.013V8.592H23.13V9.775H21.274v6.691H19.868V9.775ZM12.3,15.84l.531-1.033a3.056,3.056,0,0,0,1.887.624c.943,0,1.333-.42,1.333-1.1,0-.795-.46-1.022-1.321-1.317-1.356-.455-2.088-.966-2.088-2.4,0-1.465.968-2.169,2.43-2.169a3.607,3.607,0,0,1,2.087.545l-.531,1.045a2.439,2.439,0,0,0-1.45-.431c-.7,0-1.108.3-1.108.931,0,.659.259.875,1.121,1.17,1.285.421,2.335.863,2.335,2.523,0,1.329-.66,2.373-2.689,2.373A4.356,4.356,0,0,1,12.3,15.84m-4.456-2.4H9.474L9.119,12.1a17.312,17.312,0,0,1-.425-1.957H8.67A14.914,14.914,0,0,1,8.221,12.1L7.843,13.44Zm.13-4.848H9.485l2.328,7.875H10.277l-.52-1.946H7.535l-.543,1.946H5.539ZM2.53,15.329c.91,0,1.264-.364,1.264-1.195,0-.785-.3-1.183-1.24-1.183H1.408v2.378Zm-.011-3.493c.791,0,1-.353,1-1.059S3.263,9.73,2.471,9.73H1.408v2.106H2.519ZM0,8.592H2.743c1.512,0,2.245.74,2.245,2.06A1.468,1.468,0,0,1,3.96,12.279,1.765,1.765,0,0,1,5.319,14.2c0,1.593-.934,2.264-2.564,2.264H0V8.592Z" transform="translate(0 -2.028)" fill="#110f0c"/>
      </g>
    </g>
  </g>
</svg>
