<svg xmlns="http://www.w3.org/2000/svg" width="30.078" height="24.973" viewBox="0 0 30.078 24.973">
  <g id="Icon_feather-camera" data-name="Icon feather-camera" transform="translate(-0.5 -3.5)">
    <path id="Path_105" data-name="Path 105" d="M29.578,24.92a2.553,2.553,0,0,1-2.553,2.553H4.053A2.553,2.553,0,0,1,1.5,24.92V10.881A2.553,2.553,0,0,1,4.053,8.329H9.158L11.71,4.5h7.658L21.92,8.329h5.105a2.553,2.553,0,0,1,2.553,2.553Z" fill="none" stroke="#007072" stroke-linecap="round" stroke-linejoin="round" stroke-width="2"/>
    <path id="Path_106" data-name="Path 106" d="M22.21,18.605A5.105,5.105,0,1,1,17.105,13.5a5.105,5.105,0,0,1,5.105,5.105Z" transform="translate(-1.566 -1.342)" fill="none" stroke="#007072" stroke-linecap="round" stroke-linejoin="round" stroke-width="2"/>
  </g>
</svg>
