<svg xmlns="http://www.w3.org/2000/svg" width="23.926" height="21.448" viewBox="0 0 23.926 21.448">
  <g id="order_1_" data-name="order (1)" transform="translate(0.1 -0.733)">
    <g id="Group_96" data-name="Group 96" transform="translate(0 2.833)">
      <path id="Path_162" data-name="Path 162" d="M4.177,2.833H1.11A1.112,1.112,0,0,0,0,3.943V7.01a1.112,1.112,0,0,0,1.11,1.11H4.177a1.112,1.112,0,0,0,1.11-1.11V3.943A1.112,1.112,0,0,0,4.177,2.833ZM4.336,7.01a.159.159,0,0,1-.159.159H1.11A.159.159,0,0,1,.952,7.01V3.943a.159.159,0,0,1,.159-.159H4.177a.159.159,0,0,1,.159.159Z" transform="translate(0 -4.833)" fill="#fff" stroke="#fff" stroke-width="0.2"/>
      <path id="Path_163" data-name="Path 163" d="M25.631,2.833H11.776a1.112,1.112,0,0,0-1.11,1.11V7.01a1.112,1.112,0,0,0,1.11,1.11H25.631a1.112,1.112,0,0,0,1.11-1.11V3.943A1.111,1.111,0,0,0,25.631,2.833Zm.158,4.177a.158.158,0,0,1-.159.159H11.776a.159.159,0,0,1-.159-.159V3.943a.159.159,0,0,1,.159-.159H25.631a.158.158,0,0,1,.159.159Z" transform="translate(-3.015 -4.833)" fill="#fff" stroke="#fff" stroke-width="0.2"/>
      <path id="Path_164" data-name="Path 164" d="M25.631,13.833H11.776a1.112,1.112,0,0,0-1.11,1.11V18.01a1.112,1.112,0,0,0,1.11,1.11H25.631a1.112,1.112,0,0,0,1.11-1.11V14.943A1.111,1.111,0,0,0,25.631,13.833Zm.158,4.177a.158.158,0,0,1-.159.159H11.776a.158.158,0,0,1-.159-.159V14.943a.159.159,0,0,1,.159-.159H25.631a.158.158,0,0,1,.159.159Z" transform="translate(-3.015 -7.853)" fill="#fff" stroke="#fff" stroke-width="0.2"/>
      <path id="Path_165" data-name="Path 165" d="M25.631,24.833H11.776a1.112,1.112,0,0,0-1.11,1.11V29.01a1.112,1.112,0,0,0,1.11,1.11H25.631a1.112,1.112,0,0,0,1.11-1.11V25.943A1.111,1.111,0,0,0,25.631,24.833Zm.158,4.177a.158.158,0,0,1-.159.159H11.776a.158.158,0,0,1-.159-.159V25.943a.159.159,0,0,1,.159-.159H25.631a.158.158,0,0,1,.159.159Z" transform="translate(-3.015 -10.873)" fill="#fff" stroke="#fff" stroke-width="0.2"/>
      <path id="Path_166" data-name="Path 166" d="M4.177,13.833H1.11A1.112,1.112,0,0,0,0,14.943V18.01a1.112,1.112,0,0,0,1.11,1.11H4.177a1.112,1.112,0,0,0,1.11-1.11V14.943A1.112,1.112,0,0,0,4.177,13.833Zm.159,4.177a.158.158,0,0,1-.159.159H1.11a.158.158,0,0,1-.159-.159V14.943a.159.159,0,0,1,.159-.159H4.177a.159.159,0,0,1,.159.159Z" transform="translate(0 -7.853)" fill="#fff" stroke="#fff" stroke-width="0.2"/>
      <path id="Path_167" data-name="Path 167" d="M4.177,24.833H1.11A1.112,1.112,0,0,0,0,25.943V29.01a1.112,1.112,0,0,0,1.11,1.11H4.177a1.112,1.112,0,0,0,1.11-1.11V25.943A1.112,1.112,0,0,0,4.177,24.833Zm.159,4.177a.158.158,0,0,1-.159.159H1.11a.158.158,0,0,1-.159-.159V25.943a.159.159,0,0,1,.159-.159H4.177a.159.159,0,0,1,.159.159Z" transform="translate(0 -10.873)" fill="#fff" stroke="#fff" stroke-width="0.2"/>
    </g>
  </g>
</svg>
