<svg xmlns="http://www.w3.org/2000/svg" width="89.9" height="30" viewBox="0 0 89.9 30">
  <g id="Group_121" data-name="Group 121" transform="translate(-180 -409)">
    <rect id="Rectangle_70" data-name="Rectangle 70" width="50" height="1" transform="translate(180 438)" fill="#112142"/>
    <text id="Nr" transform="translate(180 426)" fill="#007072" font-size="18" font-family="WorkSans-Regular, Work Sans" letter-spacing="0.01em"><tspan x="0" y="0">Nr</tspan></text>
    <path id="Icon_ionic-ios-arrow-round-forward" data-name="Icon ionic-ios-arrow-round-forward" d="M20.784,11.51a.919.919,0,0,0-.007,1.294l4.275,4.282H8.782a.914.914,0,0,0,0,1.828H25.045L20.77,23.2a.925.925,0,0,0,.007,1.294.91.91,0,0,0,1.287-.007l5.794-5.836h0a1.026,1.026,0,0,0,.19-.288.872.872,0,0,0,.07-.352.916.916,0,0,0-.26-.64l-5.794-5.836A.9.9,0,0,0,20.784,11.51Z" transform="translate(241.782 405.748)" fill="#007072"/>
  </g>
</svg>
