<svg xmlns="http://www.w3.org/2000/svg" width="173.5" height="173.5" viewBox="0 0 173.5 173.5">
  <g id="Group_121" data-name="Group 121" transform="translate(-6.5 -6.5)">
    <path id="Path_131" data-name="Path 131" d="M18,7.5V179" transform="translate(75.25)" fill="none" stroke="#007072" stroke-linecap="round" stroke-linejoin="round" stroke-width="2"/>
    <path id="Path_132" data-name="Path 132" d="M7.5,18H179" transform="translate(0 75.25)" fill="none" stroke="#007072" stroke-linecap="round" stroke-linejoin="round" stroke-width="2"/>
  </g>
</svg>
