<svg xmlns="http://www.w3.org/2000/svg" width="26" height="26" viewBox="0 0 26 26">
  <g id="Group_28" data-name="Group 28" transform="translate(-284.958 -408.313)">
    <path id="Path_73" data-name="Path 73" d="M284.958,409.813v5.739h2v-5.239H292.3v-2h-5.845A1.5,1.5,0,0,0,284.958,409.813Z" fill="#fff"/>
    <path id="Path_74" data-name="Path 74" d="M309.458,408.313h-5.874v2h5.374v5.239h2v-5.739A1.5,1.5,0,0,0,309.458,408.313Z" fill="#fff"/>
    <path id="Path_75" data-name="Path 75" d="M308.958,432.313h-5.374v2h5.874a1.5,1.5,0,0,0,1.5-1.5v-5.98h-2Z" fill="#fff"/>
    <path id="Path_76" data-name="Path 76" d="M286.958,426.833h-2v5.98a1.5,1.5,0,0,0,1.5,1.5H292.3v-2h-5.345Z" fill="#fff"/>
  </g>
</svg>
