<svg xmlns="http://www.w3.org/2000/svg" width="21.72" height="23.966" viewBox="0 0 21.72 23.966">
  <g id="Icon_feather-home" data-name="Icon feather-home" transform="translate(-3.75 -2.25)">
    <path id="Path_170" data-name="Path 170" d="M4.5,10.863,14.61,3l10.11,7.863V23.22a2.247,2.247,0,0,1-2.247,2.247H6.747A2.247,2.247,0,0,1,4.5,23.22Z" fill="none" stroke="#444d4d" stroke-linecap="round" stroke-linejoin="round" stroke-width="1.5"/>
    <path id="Path_171" data-name="Path 171" d="M13.5,29.233V18h6.74V29.233" transform="translate(-2.26 -3.767)" fill="none" stroke="#444d4d" stroke-linecap="round" stroke-linejoin="round" stroke-width="1.5"/>
  </g>
</svg>
